…
    ## [1] "carrier" "name"

``` r
colnames(flights2)
```

    ## [1] "year"      "tailnum"   "carrier"   "time_hour"

``` r
left_join(airlines, flights2)
```

    ## Joining, by = "carrier"

    ## # A tibble: 1,002 x 5
    ##    carrier name               year tailnum time_hour          
    ##    <chr>   <chr>             <int> <chr>   <dttm>             
    ##  1 9E      Endeavor Air Inc.  2013 N915XJ  2013-01-01 08:00:00
    ##  2 9E      Endeavor Air Inc.  2013 N8444F  2013-01-01 15:00:00
    ##  3 9E      Endeavor Air Inc.  2013 N920XJ  2013-01-01 14:00:00
    ##  4 9E      Endeavor Air Inc.  2013 N8409N  2013-01-01 15:00:00
    ##  5 9E      Endeavor Air Inc.  2013 N8631E  2013-01-01 15:00:00
    ##  6 9E      Endeavor Air Inc.  2013 N913XJ  2013-01-01 15:00:00
    ##  7 9E      Endeavor Air Inc.  2013 N904XJ  2013-01-01 15:00:00
    ##  8 9E      Endeavor Air Inc.  2013 N934XJ  2013-01-01 15:00:00
    ##  9 9E      Endeavor Air Inc.  2013 N910XJ  2013-01-01 16:00:00
    ## 10 9E      Endeavor Air Inc.  2013 N931XJ  2013-01-01 16:00:00
    ## # ... with 992 more rows
…
``` r
# add weather information to the flights2 dataset by matching "year" and "time_hour"
colnames(weather) 
```

    ##  [1] "origin"     "year"       "month"      "day"        "hour"      
    ##  [6] "temp"       "dewp"       "humid"      "wind_dir"   "wind_speed"
    ## [11] "wind_gust"  "precip"     "pressure"   "visib"      "time_hour"

``` r
  flights2 %>% 
  left_join(weather, by = c("year", "time_hour"))
```

    ## # A tibble: 2,888 x 17
    ##     year tailnum carrier time_hour           origin month   day  hour  temp
    ##    <dbl> <chr>   <chr>   <dttm>              <chr>  <dbl> <int> <int> <dbl>
    ##  1  2013 N14228  UA      2013-01-01 05:00:00 EWR        1     1     5  39.0
    ##  2  2013 N14228  UA      2013-01-01 05:00:00 JFK        1     1     5  39.0
    ##  3  2013 N14228  UA      2013-01-01 05:00:00 LGA        1     1     5  39.9
    ##  4  2013 N24211  UA      2013-01-01 05:00:00 EWR        1     1     5  39.0
    ##  5  2013 N24211  UA      2013-01-01 05:00:00 JFK        1     1     5  39.0
    ##  6  2013 N24211  UA      2013-01-01 05:00:00 LGA        1     1     5  39.9
    ##  7  2013 N619AA  AA      2013-01-01 05:00:00 EWR        1     1     5  39.0
    ##  8  2013 N619AA  AA      2013-01-01 05:00:00 JFK        1     1     5  39.0
    ##  9  2013 N619AA  AA      2013-01-01 05:00:00 LGA        1     1     5  39.9
    ## 10  2013 N804JB  B6      2013-01-01 05:00:00 EWR        1     1     5  39.0
    ## # ... with 2,878 more rows, and 8 more variables: dewp <dbl>, humid <dbl>,
    ## #   wind_dir <dbl>, wind_speed <dbl>, wind_gust <dbl>, precip <dbl>,
    ## #   pressure <dbl>, visib <dbl>
…
Practice Exercises
------------------

Practice these concepts in the following exercises. It might help you to first identify the type of function you are applying.

### 1. Filter the rows of `flights2` by matching "year" and "time\_hour" variables to `weather` dataset. Use both `semi_join()` and `anti_join()`

``` r
semi_join(flights2, weather, by = c("year", "time_hour"))
```

    ## # A tibble: 1,000 x 4
    ##     year tailnum carrier time_hour          
    ##    <int> <chr>   <chr>   <dttm>             
    ##  1  2013 N14228  UA      2013-01-01 05:00:00
    ##  2  2013 N24211  UA      2013-01-01 05:00:00
    ##  3  2013 N619AA  AA      2013-01-01 05:00:00
    ##  4  2013 N804JB  B6      2013-01-01 05:00:00
    ##  5  2013 N668DN  DL      2013-01-01 06:00:00
    ##  6  2013 N39463  UA      2013-01-01 05:00:00
    ##  7  2013 N516JB  B6      2013-01-01 06:00:00
    ##  8  2013 N829AS  EV      2013-01-01 06:00:00
    ##  9  2013 N593JB  B6      2013-01-01 06:00:00
    ## 10  2013 N3ALAA  AA      2013-01-01 06:00:00
    ## # ... with 990 more rows
…
    ## # A tibble: 0 x 4
    ## # ... with 4 variables: year <int>, tailnum <chr>, carrier <chr>,
    ## #   time_hour <dttm>

### 2. Can we apply `set` and `binding` funcions between `flights2` and `weather` datasets. Why and why not?

``` r
#union(flights2, weather)
bind_rows(flights2, weather)
```

    ## # A tibble: 27,115 x 17
    ##     year tailnum carrier time_hour           origin month   day  hour  temp
    ##    <dbl> <chr>   <chr>   <dttm>              <chr>  <dbl> <int> <int> <dbl>
    ##  1  2013 N14228  UA      2013-01-01 05:00:00 <NA>      NA    NA    NA    NA
    ##  2  2013 N24211  UA      2013-01-01 05:00:00 <NA>      NA    NA    NA    NA
    ##  3  2013 N619AA  AA      2013-01-01 05:00:00 <NA>      NA    NA    NA    NA
    ##  4  2013 N804JB  B6      2013-01-01 05:00:00 <NA>      NA    NA    NA    NA
    ##  5  2013 N668DN  DL      2013-01-01 06:00:00 <NA>      NA    NA    NA    NA
    ##  6  2013 N39463  UA      2013-01-01 05:00:00 <NA>      NA    NA    NA    NA
    ##  7  2013 N516JB  B6      2013-01-01 06:00:00 <NA>      NA    NA    NA    NA
    ##  8  2013 N829AS  EV      2013-01-01 06:00:00 <NA>      NA    NA    NA    NA
    ##  9  2013 N593JB  B6      2013-01-01 06:00:00 <NA>      NA    NA    NA    NA
    ## 10  2013 N3ALAA  AA      2013-01-01 06:00:00 <NA>      NA    NA    NA    NA
    ## # ... with 27,105 more rows, and 8 more variables: dewp <dbl>,
    ## #   humid <dbl>, wind_dir <dbl>, wind_speed <dbl>, wind_gust <dbl>,
    ## #   precip <dbl>, pressure <dbl>, visib <dbl>

``` r
#bind_cols(flights2, weather)
flights2
```

    ## # A tibble: 1,000 x 4
    ##     year tailnum carrier time_hour          
    ##    <int> <chr>   <chr>   <dttm>             
    ##  1  2013 N14228  UA      2013-01-01 05:00:00
    ##  2  2013 N24211  UA      2013-01-01 05:00:00
    ##  3  2013 N619AA  AA      2013-01-01 05:00:00
    ##  4  2013 N804JB  B6      2013-01-01 05:00:00
    ##  5  2013 N668DN  DL      2013-01-01 06:00:00
    ##  6  2013 N39463  UA      2013-01-01 05:00:00
    ##  7  2013 N516JB  B6      2013-01-01 06:00:00
    ##  8  2013 N829AS  EV      2013-01-01 06:00:00
    ##  9  2013 N593JB  B6      2013-01-01 06:00:00
    ## 10  2013 N3ALAA  AA      2013-01-01 06:00:00
    ## # ... with 990 more rows

``` r
weather
```

    ## # A tibble: 26,115 x 15
    ##    origin  year month   day  hour  temp  dewp humid wind_dir wind_speed
    ##    <chr>  <dbl> <dbl> <int> <int> <dbl> <dbl> <dbl>    <dbl>      <dbl>
    ##  1 EWR     2013     1     1     1  39.0  26.1  59.4      270      10.4 
    ##  2 EWR     2013     1     1     2  39.0  27.0  61.6      250       8.06
    ##  3 EWR     2013     1     1     3  39.0  28.0  64.4      240      11.5 
    ##  4 EWR     2013     1     1     4  39.9  28.0  62.2      250      12.7 
    ##  5 EWR     2013     1     1     5  39.0  28.0  64.4      260      12.7 
    ##  6 EWR     2013     1     1     6  37.9  28.0  67.2      240      11.5 
    ##  7 EWR     2013     1     1     7  39.0  28.0  64.4      240      15.0 
    ##  8 EWR     2013     1     1     8  39.9  28.0  62.2      250      10.4 
    ##  9 EWR     2013     1     1     9  39.9  28.0  62.2      260      15.0 
    ## 10 EWR     2013     1     1    10  41    28.0  59.6      260      13.8 
    ## # ... with 26,105 more rows, and 5 more variables: wind_gust <dbl>,
    ## #   precip <dbl>, pressure <dbl>, visib <dbl>, time_hour <dttm>
…
